<?xml version="1.0" encoding="utf-8"?>
<!-- Generator: Adobe Illustrator 16.0.4, SVG Export Plug-In . SVG Version: 6.00 Build 0)  -->
<!DOCTYPE svg PUBLIC "-//W3C//DTD SVG 1.1//EN" "http://www.w3.org/Graphics/SVG/1.1/DTD/svg11.dtd">
<svg version="1.1" id="Layer_1" xmlns="http://www.w3.org/2000/svg" xmlns:xlink="http://www.w3.org/1999/xlink" x="0px" y="0px"
	 width="22.012px" height="22.008px" viewBox="0 0 22.012 22.008" enable-background="new 0 0 22.012 22.008" xml:space="preserve">
<g>
	<path opacity="0.76" fill="#CB2029" d="M14.877,18.133c0,2.144-1.73,3.875-3.873,3.875l0,0c-2.145,0-3.874-1.731-3.874-3.875V3.872
		C7.13,1.734,8.859,0,11.004,0l0,0c2.143,0,3.873,1.734,3.873,3.872V18.133z"/>
	<path opacity="0.76" fill="#CB2029" d="M3.869,14.878C1.727,14.878,0,13.148,0,11.005l0,0c0-2.142,1.727-3.872,3.869-3.872h14.269
		c2.131,0,3.874,1.73,3.874,3.872l0,0c0,2.143-1.743,3.873-3.874,3.873H3.869z"/>
</g>
</svg>
